	Order Invoice
--------------------------------------
Name : Dan Moragu
Order id :610
Address : Adresa
--------------------------------------
1.banane x3
		3x 15.2		45.599999999999994
1.mere x5
		5x 10.0		50.0
--------------------------------------
TOTAL = 95.6
--------------------------------------
Thanks for shopping with us! 
Hope you have a great day!
