	Order Invoice
--------------------------------------
Name : Bogdan Dan
Order id :559
Address : Bahamas
--------------------------------------
1.banane x2
	2x 15.2		30.4
--------------------------------------
TOTAL = 30.4
--------------------------------------
Thanks for shopping with us!
Hope you have a great day!
